{ "height":13,
 "layers":[
        {
         "draworder":"topdown",
         "height":13,
         "name":"ObjectLayer",
         "objects":[
                {
                 "gid":83,
                 "height":54,
                 "id":91,
                 "name":"",
                 "rotation":0,
                 "type":"enemy_drone",
                 "visible":true,
                 "width":54,
                 "x":1512,
                 "y":108
                }, 
                {
                 "gid":1,
                 "height":54,
                 "id":94,
                 "name":"",
                 "rotation":0,
                 "type":"enemy_seagull",
                 "visible":true,
                 "width":54,
                 "x":1458,
                 "y":594
                }, 
                {
                 "gid":1,
                 "height":54,
                 "id":95,
                 "name":"",
                 "rotation":0,
                 "type":"enemy_seagull",
                 "visible":true,
                 "width":54,
                 "x":1188,
                 "y":108
                }],
         "offsetx":-972,
         "offsety":0,
         "opacity":1,
         "type":"objectgroup",
         "visible":true,
         "width":20,
         "x":0,
         "y":0
        }],
 "nextobjectid":97,
 "orientation":"orthogonal",
 "renderorder":"right-down",
 "tileheight":54,
 "tilesets":[
        {
         "columns":9,
         "firstgid":1,
         "image":"..\/animation\/Seagull_Idle.png",
         "imageheight":512,
         "imagewidth":512,
         "margin":0,
         "name":"Seagull",
         "spacing":0,
         "tilecount":81,
         "tileheight":54,
         "tilewidth":54
        }, 
        {
         "columns":18,
         "firstgid":82,
         "image":"..\/animation\/Drone_Idle.png",
         "imageheight":512,
         "imagewidth":1024,
         "margin":0,
         "name":"drone",
         "spacing":0,
         "tilecount":162,
         "tileheight":54,
         "tilewidth":54
        }, 
        {
         "columns":4,
         "firstgid":244,
         "image":"..\/animation\/Coin_Spritesheet.png",
         "imageheight":256,
         "imagewidth":256,
         "margin":0,
         "name":"coin",
         "spacing":0,
         "tilecount":16,
         "tileheight":54,
         "tilewidth":54
        }, 
        {
         "columns":9,
         "firstgid":260,
         "image":"..\/animation\/Fish_Hit.png",
         "imageheight":512,
         "imagewidth":512,
         "margin":0,
         "name":"fish",
         "spacing":0,
         "tilecount":81,
         "tileheight":54,
         "tilewidth":54
        }, 
        {
         "columns":1,
         "firstgid":341,
         "image":"..\/animation\/Coinmagnet.png",
         "imageheight":62,
         "imagewidth":63,
         "margin":0,
         "name":"boost_coin",
         "spacing":0,
         "tilecount":1,
         "tileheight":54,
         "tilewidth":54
        }],
 "tilewidth":54,
 "version":1,
 "width":30
}