{ "height":13,
 "layers":[
        {
         "draworder":"topdown",
         "height":13,
         "name":"ObjectLayer",
         "objects":[
                {
                 "gid":82,
                 "height":54,
                 "id":8,
                 "name":"enemy_drone",
                 "rotation":0,
                 "type":"enemy_drone",
                 "visible":true,
                 "width":54,
                 "x":162,
                 "y":108
                }, 
                {
                 "gid":82,
                 "height":54,
                 "id":9,
                 "name":"enemy_drone",
                 "rotation":0,
                 "type":"enemy_drone",
                 "visible":true,
                 "width":54,
                 "x":702,
                 "y":648
                }, 
                {
                 "gid":244,
                 "height":54,
                 "id":10,
                 "name":"",
                 "rotation":0,
                 "type":"coin",
                 "visible":true,
                 "width":54,
                 "x":486,
                 "y":378
                }, 
                {
                 "gid":244,
                 "height":54,
                 "id":11,
                 "name":"",
                 "rotation":0,
                 "type":"coin",
                 "visible":true,
                 "width":54,
                 "x":432,
                 "y":324
                }, 
                {
                 "gid":244,
                 "height":54,
                 "id":13,
                 "name":"",
                 "rotation":0,
                 "type":"coin",
                 "visible":true,
                 "width":54,
                 "x":378,
                 "y":270
                }, 
                {
                 "gid":244,
                 "height":54,
                 "id":16,
                 "name":"",
                 "rotation":0,
                 "type":"coin",
                 "visible":true,
                 "width":54,
                 "x":486,
                 "y":270
                }, 
                {
                 "gid":244,
                 "height":54,
                 "id":17,
                 "name":"",
                 "rotation":0,
                 "type":"coin",
                 "visible":true,
                 "width":54,
                 "x":540,
                 "y":324
                }, 
                {
                 "gid":244,
                 "height":54,
                 "id":18,
                 "name":"",
                 "rotation":0,
                 "type":"coin",
                 "visible":true,
                 "width":54,
                 "x":594,
                 "y":378
                }, 
                {
                 "gid":244,
                 "height":54,
                 "id":19,
                 "name":"",
                 "rotation":0,
                 "type":"coin",
                 "visible":true,
                 "width":54,
                 "x":540,
                 "y":378
                }, 
                {
                 "gid":244,
                 "height":54,
                 "id":20,
                 "name":"",
                 "rotation":0,
                 "type":"coin",
                 "visible":true,
                 "width":54,
                 "x":486,
                 "y":324
                }, 
                {
                 "gid":244,
                 "height":54,
                 "id":21,
                 "name":"",
                 "rotation":0,
                 "type":"",
                 "visible":true,
                 "width":54,
                 "x":432,
                 "y":270
                }],
         "opacity":1,
         "type":"objectgroup",
         "visible":true,
         "width":20,
         "x":0,
         "y":0
        }],
 "nextobjectid":23,
 "orientation":"orthogonal",
 "renderorder":"right-down",
 "tileheight":54,
 "tilesets":[
        {
         "columns":9,
         "firstgid":1,
         "image":"..\/animation\/Seagull_Idle.png",
         "imageheight":512,
         "imagewidth":512,
         "margin":0,
         "name":"Seagull",
         "spacing":0,
         "tilecount":81,
         "tileheight":54,
         "tilewidth":54
        }, 
        {
         "columns":18,
         "firstgid":82,
         "image":"..\/animation\/Drone_Idle.png",
         "imageheight":512,
         "imagewidth":1024,
         "margin":0,
         "name":"drone",
         "spacing":0,
         "tilecount":162,
         "tileheight":54,
         "tilewidth":54
        }, 
        {
         "columns":4,
         "firstgid":244,
         "image":"..\/animation\/Coin_Spritesheet.png",
         "imageheight":256,
         "imagewidth":256,
         "margin":0,
         "name":"coin",
         "spacing":0,
         "tilecount":16,
         "tileheight":54,
         "tilewidth":54
        }, 
        {
         "columns":9,
         "firstgid":260,
         "image":"..\/animation\/Fish_Hit.png",
         "imageheight":512,
         "imagewidth":512,
         "margin":0,
         "name":"fish",
         "spacing":0,
         "tilecount":81,
         "tileheight":54,
         "tilewidth":54
        }],
 "tilewidth":54,
 "version":1,
 "width":20
}