{ "height":13,
 "layers":[
        {
         "data":[0, 0, 0, 0, 0, 0, 0, 0, 0, 0, 0, 0, 0, 0, 0, 0, 0, 0, 0, 0, 0, 0, 0, 0, 0, 0, 0, 0, 0, 0, 0, 0, 0, 0, 0, 0, 0, 0, 0, 0, 0, 0, 0, 0, 0, 0, 0, 0, 0, 0, 0, 0, 0, 0, 0, 0, 0, 0, 0, 0, 0, 0, 0, 0, 0, 0, 0, 0, 0, 0, 0, 0, 0, 0, 0, 0, 0, 0],
         "height":13,
         "name":"Tile Layer 1",
         "opacity":1,
         "type":"tilelayer",
         "visible":true,
         "width":6,
         "x":0,
         "y":0
        }, 
        {
         "draworder":"topdown",
         "height":13,
         "name":"Object Layer 1",
         "objects":[
                {
                 "gid":17,
                 "height":54,
                 "id":82,
                 "name":"enemy_seagull",
                 "rotation":0,
                 "type":"",
                 "visible":true,
                 "width":54,
                 "x":0,
                 "y":324
                }, 
                {
                 "gid":17,
                 "height":54,
                 "id":83,
                 "name":"enemy_seagull",
                 "rotation":0,
                 "type":"",
                 "visible":true,
                 "width":54,
                 "x":108,
                 "y":216
                }, 
                {
                 "gid":17,
                 "height":54,
                 "id":84,
                 "name":"enemy_seagull",
                 "rotation":0,
                 "type":"",
                 "visible":true,
                 "width":54,
                 "x":108,
                 "y":432
                }, 
                {
                 "gid":1,
                 "height":54,
                 "id":85,
                 "name":"",
                 "rotation":0,
                 "type":"powerup_coinMagnet",
                 "visible":true,
                 "width":54,
                 "x":216,
                 "y":324
                }],
         "opacity":1,
         "type":"objectgroup",
         "visible":true,
         "width":20,
         "x":0,
         "y":0
        }],
 "nextobjectid":86,
 "orientation":"orthogonal",
 "renderorder":"right-down",
 "tileheight":54,
 "tilesets":[
        {
         "columns":4,
         "firstgid":1,
         "image":"..\/animation\/Coin_Spritesheet.png",
         "imageheight":256,
         "imagewidth":256,
         "margin":0,
         "name":"Coin_Spritesheet",
         "spacing":0,
         "tilecount":16,
         "tileheight":54,
         "tilewidth":54
        }, 
        {
         "columns":9,
         "firstgid":17,
         "image":"..\/animation\/Seagull_Idle.png",
         "imageheight":512,
         "imagewidth":512,
         "margin":0,
         "name":"Seagull_Idle",
         "spacing":0,
         "tilecount":81,
         "tileheight":54,
         "tilewidth":54
        }],
 "tilewidth":54,
 "version":1,
 "width":6
}